…
### with_rollup

-   easily add all possible combinations of grouping variables in descending order
-   calculate group sum and total sum (DAU and MAU in this example)


```r
web_service_data %>% 
  group_by(date_id) %>% with_rollup() %>% 
  summarize(user_cnt = n_distinct(if_else(page_view_cnt > 0, id, NA)))
#> # A tibble: 31 × 2
#>    date_id    user_cnt
#>    <chr>         <int>
#>  1 2024-06-01      644
#>  2 2024-06-02      615
#>  3 2024-06-03      700
#>  4 2024-06-04      710
#>  5 2024-06-05      706
#>  6 2024-06-06      637
#>  7 2024-06-07      694
#>  8 2024-06-08      642
#>  9 2024-06-09      622
#> 10 2024-06-10      706
#> # ℹ 21 more rows
…
